<svg width="15" height="28" viewBox="0 0 15 28" fill="none" xmlns="http://www.w3.org/2000/svg">
<path id="facebook" d="M13.9202 15.5464L14.6651 10.6894H10.005V7.53886C10.005 6.20973 10.6548 4.91343 12.742 4.91343H14.862V0.778374C14.862 0.778374 12.9389 0.450195 11.1011 0.450195C7.2614 0.450195 4.75412 2.77698 4.75412 6.98752V10.6894H0.487793V15.5464H4.75412V27.2887C5.61066 27.4232 6.4869 27.4921 7.37955 27.4921C8.27219 27.4921 9.14843 27.4232 10.005 27.2887V15.5464H13.9202Z" fill="white"/>
</svg>
